Date,ID,"Company Name",Email,Status
2020-08-10,5,abc,abc@gmail.com,active
2020-08-10,6,test,test@gmail.com,active
2020-08-10,7,new,new@gmail.com,active
2020-08-10,8,test2,test2@gmail.com,active
2020-08-10,9,abc,abcd@gmail.com,active
  